saved/wavenet_theta_[9]_23_21.315_0.174.ckpt
saved/wavenet_theta_[10]_29_49.349_0.144.ckpt
saved/wavenet_theta_[12]_26_33.342_0.139.ckpt
saved/wavenet_theta_[13]_28_85.032_0.148.ckpt
saved/wavenet_theta_[15]_24_24.838_0.150.ckpt
saved/wavenet_theta_[16]_27_15.439_0.169.ckpt
saved/wavenet_theta_[19]_29_33.251_0.129.ckpt
saved/wavenet_theta_[21]_19_2038.773_0.125.ckpt
saved/wavenet_theta_[22]_28_23.469_0.209.ckpt
saved/wavenet_theta_[23]_25_7.505_0.131.ckpt
saved/wavenet_theta_[24]_25_13.029_0.096.ckpt
saved/wavenet_theta_[25]_25_15.891_0.089.ckpt
saved/wavenet_theta_[26]_20_16.074_0.139.ckpt
saved/wavenet_theta_[27]_11_20.820_0.093.ckpt
saved/wavenet_theta_[28]_21_15.775_0.141.ckpt
saved/wavenet_theta_[29]_21_23.964_0.165.ckpt
saved/wavenet_theta_[30]_26_11.186_0.104.ckpt
saved/wavenet_theta_[31]_28_57.779_0.097.ckpt
saved/wavenet_theta_[33]_20_29.034_0.071.ckpt
saved/wavenet_theta_[34]_27_36.372_0.170.ckpt
saved/wavenet_theta_[35]_28_17.959_0.060.ckpt
saved/wavenet_theta_[37]_26_43.550_0.117.ckpt
saved/wavenet_theta_[38]_29_36.270_0.145.ckpt
saved/wavenet_theta_[39]_20_59.032_0.120.ckpt
saved/wavenet_theta_[40]_27_74.626_0.164.ckpt
saved/wavenet_theta_[41]_26_22.202_0.268.ckpt
saved/wakeraw_theta_[9]_0_25.258_0.158.ckpt
saved/wakeraw_theta_[10]_0_132.738_0.124.ckpt
saved/wakeraw_theta_[12]_0_40.456_0.075.ckpt
saved/wakeraw_theta_[13]_0_111.377_0.135.ckpt
saved/wakeraw_theta_[15]_0_92.773_0.160.ckpt
saved/wakeraw_theta_[16]_0_35.087_0.070.ckpt
saved/wakeraw_theta_[19]_0_56.310_0.089.ckpt
saved/wakeraw_theta_[21]_0_3526.462_0.204.ckpt
saved/wakeraw_theta_[22]_0_30.277_0.111.ckpt
saved/wakeraw_theta_[23]_0_13.550_0.339.ckpt
saved/wakeraw_theta_[24]_0_36.326_0.023.ckpt
saved/wakeraw_theta_[25]_0_218.018_0.066.ckpt
saved/wakeraw_theta_[26]_0_38.015_0.105.ckpt
saved/wakeraw_theta_[27]_0_26.748_0.050.ckpt
saved/wakeraw_theta_[28]_0_31.984_0.032.ckpt
saved/wakeraw_theta_[29]_0_93.268_0.182.ckpt
saved/wakeraw_theta_[30]_0_13.506_0.060.ckpt
saved/wakeraw_theta_[31]_0_100.721_0.065.ckpt
saved/wakeraw_theta_[33]_0_78.389_0.009.ckpt
saved/wakeraw_theta_[34]_0_49.057_0.075.ckpt
saved/wakeraw_theta_[35]_0_21.224_0.021.ckpt
saved/wakeraw_theta_[37]_0_63.415_0.089.ckpt
saved/wakeraw_theta_[38]_0_46.339_0.076.ckpt
saved/wakeraw_theta_[39]_0_459.860_0.180.ckpt
saved/wakeraw_theta_[40]_0_4613.921_0.231.ckpt
saved/wakeraw_theta_[41]_0_14.182_0.335.ckpt
